verilator/sim.vcd
$version Generated by VerilatedVcd $end
$date Thu Oct  6 15:45:54 2022 $end
$timescale 1s $end

 $scope module TOP $end
  $var wire 16 - AUDIO_L [15:0] $end
  $var wire 16 . AUDIO_R [15:0] $end
  $var wire  8 ( VGA_B [7:0] $end
  $var wire  8 ' VGA_G [7:0] $end
  $var wire  1 + VGA_HB $end
  $var wire  1 ) VGA_HS $end
  $var wire  8 & VGA_R [7:0] $end
  $var wire  1 , VGA_VB $end
  $var wire  1 * VGA_VS $end
  $var wire  1 $ clk_12 $end
  $var wire  1 # clk_48 $end
  $var wire 12 % inputs [11:0] $end
  $var wire 25 2 ioctl_addr [24:0] $end
  $var wire  8 4 ioctl_din [7:0] $end
  $var wire  8 3 ioctl_dout [7:0] $end
  $var wire  1 / ioctl_download $end
  $var wire  8 5 ioctl_index [7:0] $end
  $var wire  1 0 ioctl_upload $end
  $var wire  1 6 ioctl_wait $end
  $var wire  1 1 ioctl_wr $end
  $scope module top $end
   $var wire 16 A AUDIO_L [15:0] $end
   $var wire 16 B AUDIO_R [15:0] $end
   $var wire  8 < VGA_B [7:0] $end
   $var wire  8 ; VGA_G [7:0] $end
   $var wire  1 ? VGA_HB $end
   $var wire  1 = VGA_HS $end
   $var wire  8 : VGA_R [7:0] $end
   $var wire  1 @ VGA_VB $end
   $var wire  1 > VGA_VS $end
   $var wire  8 L audio [7:0] $end
   $var wire  1 T ce_pix $end
   $var wire  1 8 clk_12 $end
   $var wire  1 7 clk_48 $end
   $var wire 12 9 inputs [11:0] $end
   $var wire 25 F ioctl_addr [24:0] $end
   $var wire  1 V ioctl_data $end
   $var wire  8 H ioctl_din [7:0] $end
   $var wire  8 G ioctl_dout [7:0] $end
   $var wire  1 C ioctl_download $end
   $var wire  8 I ioctl_index [7:0] $end
   $var wire  1 D ioctl_upload $end
   $var wire  1 J ioctl_wait $end
   $var wire  1 E ioctl_wr $end
   $var wire  8 P joystick [7:0] $end
   $var wire  4 N led [3:0] $end
   $var wire  1 K pause $end
   $var wire 10 Q playerinput [9:0] $end
   $var wire  1 U reset $end
   $var wire  9 M rgb [8:0] $end
   $var wire  8 R sw1 [7:0] $end
   $var wire  8 S sw2 [7:0] $end
   $var wire  8 O trakball [7:0] $end
   $scope module sharpx1 $end
    $var wire  1 c HBlank $end
    $var wire  1 d HSync $end
    $var wire  1 e VBlank $end
    $var wire  1 f VSync $end
    $var wire 16 $! a [15:0] $end
    $var wire  6 | ce [5:0] $end
    $var wire  4 } ce4 [3:0] $end
    $var wire  1 !! ce400n $end
    $var wire  1 ~ ce400p $end
    $var wire  1 b ce_pix $end
    $var wire  1 Y clk_28636 $end
    $var wire  1 X clk_sys $end
    $var wire  1 { cpu_clk $end
    $var wire  8 #! data_out [7:0] $end
    $var wire  8 "! di [7:0] $end
    $var wire 16 (! dir [15:0] $end
    $var wire  1 )! dirset $end
    $var wire 16 x gramA [15:0] $end
    $var wire  8 v gramDi [7:0] $end
    $var wire  8 w gramDo [7:0] $end
    $var wire  1 y gramWe $end
    $var wire 25 ` ioctl_addr [24:0] $end
    $var wire  8 a ioctl_dout [7:0] $end
    $var wire  1 ] ioctl_download $end
    $var wire  8 ^ ioctl_index [7:0] $end
    $var wire  1 _ ioctl_wr $end
    $var wire  1 &! iorq $end
    $var wire  1 %! mreq $end
    $var wire  1 [ pal $end
    $var wire  8 r pcgramDi [7:0] $end
    $var wire  8 s pcgramDo [7:0] $end
    $var wire  1 u pcgramWe $end
    $var wire 16 t pcgvramA [15:0] $end
    $var wire  4 z pris32m [3:0] $end
    $var wire 16 l ramA [15:0] $end
    $var wire  8 j ramDi [7:0] $end
    $var wire  8 k ramDo [7:0] $end
    $var wire  1 m ramWe $end
    $var wire  1 Z reset $end
    $var wire 14 i romA [13:0] $end
    $var wire  8 h romDo_SharpX1 [7:0] $end
    $var wire  1 \ scandouble $end
    $var wire  8 g video [7:0] $end
    $var wire 16 p vramA [15:0] $end
    $var wire  8 n vramDi [7:0] $end
    $var wire  8 o vramDo [7:0] $end
    $var wire  1 q vramWe $end
    $var wire  1 '! wr $end
    $scope module Cpu $end
     $var wire 16 e! a [15:0] $end
     $var wire  1 ]! cen $end
     $var wire  1 \! cep $end
     $var wire  1 [! clock $end
     $var wire  8 d! data_out [7:0] $end
     $var wire  8 c! di [7:0] $end
     $var wire 16 f! dir [15:0] $end
     $var wire  1 g! dirset $end
     $var wire  1 _! halt_n $end
     $var wire  1 ^! int_n $end
     $var wire  1 a! iorq $end
     $var wire  1 `! mreq $end
     $var wire  1 h! reset $end
     $var wire  1 Z! reset_n $end
     $var wire  1 b! wr $end
     $scope module Z80CPU $end
      $var wire 16 x! A [15:0] $end
      $var wire 32 r$ IOWait [31:0] $end
      $var wire 32 q$ Mode [31:0] $end
      $var wire 32 r$ T2Write [31:0] $end
      $var wire  1 w! busak_n $end
      $var wire  1 o! busrq_n $end
      $var wire  1 k! cen $end
      $var wire  1 j! clk $end
      $var wire  8 y! di [7:0] $end
      $var wire  8 #" di_reg [7:0] $end
      $var wire 16 {! dir [15:0] $end
      $var wire  1 |! dirset $end
      $var wire  8 z! dout [7:0] $end
      $var wire  1 v! halt_n $end
      $var wire  1 m! int_n $end
      $var wire  1 }! intcycle_n $end
      $var wire  1 "" iorq $end
      $var wire  1 r! iorq_n $end
      $var wire  1 p! m1_n $end
      $var wire  7 $" mcycle [6:0] $end
      $var wire  1 q! mreq_n $end
      $var wire  1 n! nmi_n $end
      $var wire  1 ~! no_read $end
      $var wire  1 s! rd_n $end
      $var wire  1 i! reset_n $end
      $var wire  1 u! rfsh_n $end
      $var wire  7 %" tstate [6:0] $end
      $var wire  1 l! wait_n $end
      $var wire  1 t! wr_n $end
      $var wire  1 !" write $end
      $scope module i_tv80_core $end
       $var wire 16 4" A [15:0] $end
       $var wire  8 ?" ACC [7:0] $end
       $var wire  4 +# ALU_Op [3:0] $end
       $var wire  4 y" ALU_Op_r [3:0] $end
       $var wire  8 t" ALU_Q [7:0] $end
       $var wire  1 R" Alternate $end
       $var wire  8 A" Ap [7:0] $end
       $var wire  1 .# Arith16 $end
       $var wire  1 w" Arith16_r $end
       $var wire  1 n" Auto_Wait $end
       $var wire  1 o" Auto_Wait_t1 $end
       $var wire  1 p" Auto_Wait_t2 $end
       $var wire  1 m" BTR_r $end
       $var wire  8 s" BusA [7:0] $end
       $var wire  1 a" BusAck $end
       $var wire  8 r" BusB [7:0] $end
       $var wire  1 `" BusReq_s $end
       $var wire  1 3# Call $end
       $var wire  1 b" ClkEn $end
       $var wire  8 f" DI_Reg [7:0] $end
       $var wire  1 <# ExchangeAF $end
       $var wire  1 :# ExchangeDH $end
       $var wire  1 =# ExchangeRS $end
       $var wire  1 ;# ExchangeRp $end
       $var wire  8 @" F [7:0] $end
       $var wire  8 u" F_Out [7:0] $end
       $var wire 32 q$ Flag_C [31:0] $end
       $var wire 32 u$ Flag_H [31:0] $end
       $var wire 32 r$ Flag_N [31:0] $end
       $var wire 32 s$ Flag_P [31:0] $end
       $var wire 32 x$ Flag_S [31:0] $end
       $var wire 32 t$ Flag_X [31:0] $end
       $var wire 32 v$ Flag_Y [31:0] $end
       $var wire 32 w$ Flag_Z [31:0] $end
       $var wire  8 B" Fp [7:0] $end
       $var wire  1 L# Halt $end
       $var wire  1 _" Halt_FF $end
       $var wire  8 C" I [7:0] $end
       $var wire 16 W" ID16 [15:0] $end
       $var wire 16 R# ID16_B [15:0] $end
       $var wire  2 K# IMode [1:0] $end
       $var wire  1 d" INT_s $end
       $var wire 32 r$ IOWait [31:0] $end
       $var wire  8 T" IR [7:0] $end
       $var wire  2 U" ISet [1:0] $end
       $var wire  2 e" IStatus [1:0] $end
       $var wire  1 D# I_BC $end
       $var wire  1 C# I_BT $end
       $var wire  1 E# I_BTR $end
       $var wire  1 @# I_CCF $end
       $var wire  1 ?# I_CPL $end
       $var wire  1 ># I_DJNZ $end
       $var wire  1 H# I_INRC $end
       $var wire  1 B# I_RETN $end
       $var wire  1 F# I_RLD $end
       $var wire  1 G# I_RRD $end
       $var wire  1 A# I_SCF $end
       $var wire  1 q" IncDecZ $end
       $var wire  4 %# IncDec_16 [3:0] $end
       $var wire  1 ## Inc_PC $end
       $var wire  1 $# Inc_WZ $end
       $var wire  1 !# IntCycle $end
       $var wire  1 ;" IntE $end
       $var wire  1 ]" IntE_FF1 $end
       $var wire  1 ^" IntE_FF2 $end
       $var wire  1 0# Jump $end
       $var wire  1 1# JumpE $end
       $var wire  1 2# JumpXY $end
       $var wire  1 7# LDSPHL $end
       $var wire  1 6# LDW $end
       $var wire  1 5# LDZ $end
       $var wire 32 q$ Mode [31:0] $end
       $var wire  1 "# NMICycle $end
       $var wire  1 c" NMI_s $end
       $var wire  1 j" NextIs_XY_Fetch $end
       $var wire  1 l" No_BTR $end
       $var wire  1 S# Oldnmi_n $end
       $var wire 16 E" PC [15:0] $end
       $var wire 16 M# PC16 [15:0] $end
       $var wire 16 N# PC16_B [15:0] $end
       $var wire  3 i" Pre_XY_F_M [2:0] $end
       $var wire  2 &# Prefix [1:0] $end
       $var wire  1 -# PreserveC $end
       $var wire  1 {" PreserveC_r $end
       $var wire  1 '# Read_To_Acc $end
       $var wire  1 (# Read_To_Reg $end
       $var wire  5 v" Read_To_Reg_r [4:0] $end
       $var wire  3 L" RegAddrA [2:0] $end
       $var wire  3 K" RegAddrA_r [2:0] $end
       $var wire  3 N" RegAddrB [2:0] $end
       $var wire  3 M" RegAddrB_r [2:0] $end
       $var wire  3 O" RegAddrC [2:0] $end
       $var wire 16 H" RegBusA [15:0] $end
       $var wire 16 V" RegBusA_r [15:0] $end
       $var wire 16 I" RegBusB [15:0] $end
       $var wire 16 J" RegBusC [15:0] $end
       $var wire  8 F" RegDIH [7:0] $end
       $var wire  8 G" RegDIL [7:0] $end
       $var wire  1 P" RegWEH $end
       $var wire  1 Q" RegWEL $end
       $var wire  1 4# RstP $end
       $var wire 16 D" SP [15:0] $end
       $var wire 16 O# SP16 [15:0] $end
       $var wire 16 P# SP16_A [15:0] $end
       $var wire 16 Q# SP16_B [15:0] $end
       $var wire  1 ,# Save_ALU $end
       $var wire  1 z" Save_ALU_r $end
       $var wire  8 X" Save_Mux [7:0] $end
       $var wire  1 I# SetDI $end
       $var wire  1 J# SetEI $end
       $var wire  3 /# Set_Addr_To [2:0] $end
       $var wire  4 *# Set_BusA_To [3:0] $end
       $var wire  4 )# Set_BusB_To [3:0] $end
       $var wire  3 9# Special_LD [2:0] $end
       $var wire  1 g" T_Res $end
       $var wire 16 S" TmpAddr [15:0] $end
       $var wire  1 k" XY_Ind $end
       $var wire  2 h" XY_State [1:0] $end
       $var wire  1 x" Z16_r $end
       $var wire  3 z$ aBC [2:0] $end
       $var wire  3 {$ aDE [2:0] $end
       $var wire  3 }$ aIOA [2:0] $end
       $var wire  3 y$ aNone [2:0] $end
       $var wire  3 ~$ aSP [2:0] $end
       $var wire  3 |$ aXY [2:0] $end
       $var wire  3 !% aZI [2:0] $end
       $var wire  1 3" busak_n $end
       $var wire  1 ," busrq_n $end
       $var wire  1 (" cen $end
       $var wire  1 '" clk $end
       $var wire  8 6" di [7:0] $end
       $var wire  8 5" dinst [7:0] $end
       $var wire 16 =" dir [15:0] $end
       $var wire  1 >" dirset $end
       $var wire  8 7" dout [7:0] $end
       $var wire  1 2" halt_n $end
       $var wire  1 *" int_n $end
       $var wire  1 :" intcycle_n $end
       $var wire  1 ." iorq $end
       $var wire  1 8# iorq_i $end
       $var wire  1 [" last_mcycle $end
       $var wire  1 \" last_tstate $end
       $var wire  1 -" m1_n $end
       $var wire  7 8" mc [6:0] $end
       $var wire  7 Z" mcycle [6:0] $end
       $var wire  3 |" mcycles [2:0] $end
       $var wire  3 }" mcycles_d [2:0] $end
       $var wire  1 +" nmi_n $end
       $var wire  1 /" no_read $end
       $var wire  1 &" reset_n $end
       $var wire  1 1" rfsh_n $end
       $var wire  1 <" stop $end
       $var wire  7 9" ts [6:0] $end
       $var wire  7 Y" tstate [6:0] $end
       $var wire  3 ~" tstates [2:0] $end
       $var wire  1 )" wait_n $end
       $var wire  1 0" write $end
       $scope module i_alu $end
        $var wire  4 /$ ALU_Op [3:0] $end
        $var wire  1 -$ Arith16 $end
        $var wire  8 =$ BitMask [7:0] $end
        $var wire  8 2$ BusA [7:0] $end
        $var wire  8 3$ BusB [7:0] $end
        $var wire  1 8$ Carry7_v $end
        $var wire  1 ;$ Carry_v $end
        $var wire  9 ?$ DAA_Q [8:0] $end
        $var wire  8 4$ F_In [7:0] $end
        $var wire  8 6$ F_Out [7:0] $end
        $var wire 32 q$ Flag_C [31:0] $end
        $var wire 32 u$ Flag_H [31:0] $end
        $var wire 32 r$ Flag_N [31:0] $end
        $var wire 32 s$ Flag_P [31:0] $end
        $var wire 32 x$ Flag_S [31:0] $end
        $var wire 32 t$ Flag_X [31:0] $end
        $var wire 32 v$ Flag_Y [31:0] $end
        $var wire 32 w$ Flag_Z [31:0] $end
        $var wire  1 :$ HalfCarry_v $end
        $var wire  6 0$ IR [5:0] $end
        $var wire  2 1$ ISet [1:0] $end
        $var wire 32 q$ Mode [31:0] $end
        $var wire  1 9$ OverFlow_v $end
        $var wire  8 5$ Q [7:0] $end
        $var wire  8 >$ Q_t [7:0] $end
        $var wire  8 <$ Q_v [7:0] $end
        $var wire  1 7$ UseCarry $end
        $var wire  1 .$ Z16 $end
       $upscope $end
       $scope module i_mcode $end
        $var wire  4 d# ALU_Op [3:0] $end
        $var wire  1 g# Arith16 $end
        $var wire  1 m# Call $end
        $var wire  3 *$ DDD [2:0] $end
        $var wire  2 ,$ DPAIR [1:0] $end
        $var wire  1 u# ExchangeAF $end
        $var wire  1 s# ExchangeDH $end
        $var wire  1 v# ExchangeRS $end
        $var wire  1 t# ExchangeRp $end
        $var wire  8 W# F [7:0] $end
        $var wire 32 q$ Flag_C [31:0] $end
        $var wire 32 u$ Flag_H [31:0] $end
        $var wire 32 r$ Flag_N [31:0] $end
        $var wire 32 s$ Flag_P [31:0] $end
        $var wire 32 x$ Flag_S [31:0] $end
        $var wire 32 t$ Flag_X [31:0] $end
        $var wire 32 v$ Flag_Y [31:0] $end
        $var wire 32 w$ Flag_Z [31:0] $end
        $var wire  1 '$ Halt $end
        $var wire  2 &$ IMode [1:0] $end
        $var wire  1 i# IORQ $end
        $var wire  8 T# IR [7:0] $end
        $var wire  2 U# ISet [1:0] $end
        $var wire  1 }# I_BC $end
        $var wire  1 |# I_BT $end
        $var wire  1 ~# I_BTR $end
        $var wire  1 y# I_CCF $end
        $var wire  1 x# I_CPL $end
        $var wire  1 w# I_DJNZ $end
        $var wire  1 #$ I_INRC $end
        $var wire  1 {# I_RETN $end
        $var wire  1 !$ I_RLD $end
        $var wire  1 "$ I_RRD $end
        $var wire  1 z# I_SCF $end
        $var wire  4 _# IncDec_16 [3:0] $end
        $var wire  1 ]# Inc_PC $end
        $var wire  1 ^# Inc_WZ $end
        $var wire  1 Y# IntCycle $end
        $var wire  1 j# Jump $end
        $var wire  1 k# JumpE $end
        $var wire  1 l# JumpXY $end
        $var wire  1 q# LDSPHL $end
        $var wire  1 p# LDW $end
        $var wire  1 o# LDZ $end
        $var wire  7 V# MCycle [6:0] $end
        $var wire  3 Z# MCycles [2:0] $end
        $var wire 32 q$ Mode [31:0] $end
        $var wire  1 X# NMICycle $end
        $var wire  1 ($ NoRead $end
        $var wire  2 \# Prefix [1:0] $end
        $var wire  1 f# PreserveC $end
        $var wire  1 a# Read_To_Acc $end
        $var wire  1 `# Read_To_Reg $end
        $var wire  1 n# RstP $end
        $var wire  3 +$ SSS [2:0] $end
        $var wire  1 e# Save_ALU $end
        $var wire  1 $$ SetDI $end
        $var wire  1 %$ SetEI $end
        $var wire  3 h# Set_Addr_To [2:0] $end
        $var wire  4 b# Set_BusA_To [3:0] $end
        $var wire  4 c# Set_BusB_To [3:0] $end
        $var wire  3 r# Special_LD [2:0] $end
        $var wire  3 [# TStates [2:0] $end
        $var wire  1 )$ Write $end
        $var wire  3 z$ aBC [2:0] $end
        $var wire  3 {$ aDE [2:0] $end
        $var wire  3 }$ aIOA [2:0] $end
        $var wire  3 y$ aNone [2:0] $end
        $var wire  3 ~$ aSP [2:0] $end
        $var wire  3 |$ aXY [2:0] $end
        $var wire  3 !% aZI [2:0] $end
       $upscope $end
       $scope module i_reg $end
        $var wire  3 B$ AddrA [2:0] $end
        $var wire  3 C$ AddrB [2:0] $end
        $var wire  3 @$ AddrC [2:0] $end
        $var wire  8 `$ B [7:0] $end
        $var wire  8 a$ C [7:0] $end
        $var wire  1 L$ CEN $end
        $var wire  8 b$ D [7:0] $end
        $var wire  8 D$ DIH [7:0] $end
        $var wire  8 G$ DIL [7:0] $end
        $var wire  1 O$ DIRSET $end
        $var wire  8 J$ DOAH [7:0] $end
        $var wire  8 E$ DOAL [7:0] $end
        $var wire  8 A$ DOBH [7:0] $end
        $var wire  8 H$ DOBL [7:0] $end
        $var wire  8 I$ DOCH [7:0] $end
        $var wire  8 F$ DOCL [7:0] $end
        $var wire  8 c$ E [7:0] $end
        $var wire  8 d$ H [7:0] $end
        $var wire 16 f$ IX [15:0] $end
        $var wire 16 g$ IY [15:0] $end
        $var wire  8 e$ L [7:0] $end
        $var wire  8 P$ RegsH(0) [7:0] $end
        $var wire  8 Q$ RegsH(1) [7:0] $end
        $var wire  8 R$ RegsH(2) [7:0] $end
        $var wire  8 S$ RegsH(3) [7:0] $end
        $var wire  8 T$ RegsH(4) [7:0] $end
        $var wire  8 U$ RegsH(5) [7:0] $end
        $var wire  8 V$ RegsH(6) [7:0] $end
        $var wire  8 W$ RegsH(7) [7:0] $end
        $var wire  8 X$ RegsL(0) [7:0] $end
        $var wire  8 Y$ RegsL(1) [7:0] $end
        $var wire  8 Z$ RegsL(2) [7:0] $end
        $var wire  8 [$ RegsL(3) [7:0] $end
        $var wire  8 \$ RegsL(4) [7:0] $end
        $var wire  8 ]$ RegsL(5) [7:0] $end
        $var wire  8 ^$ RegsL(6) [7:0] $end
        $var wire  8 _$ RegsL(7) [7:0] $end
        $var wire  1 M$ WEH $end
        $var wire  1 N$ WEL $end
        $var wire  1 K$ clk $end
       $upscope $end
      $upscope $end
     $upscope $end
    $upscope $end
    $scope module GRAM $end
     $var wire 32 o$ addr_width_g [31:0] $end
     $var wire 16 R! address_a [15:0] $end
     $var wire 16 W! address_b [15:0] $end
     $var wire  1 O! clock $end
     $var wire  8 S! data_a [7:0] $end
     $var wire  8 X! data_b [7:0] $end
     $var wire 32 h$ data_width_g [31:0] $end
     $var wire  8 T! q_a [7:0] $end
     $var wire  8 Y! q_b [7:0] $end
     $var wire  1 P! ram_cs $end
     $var wire  1 U! ram_cs_b $end
     $var wire  1 Q! wren_a $end
     $var wire  1 V! wren_b $end
    $upscope $end
    $scope module IPL $end
     $var wire 32 i$ AW [31:0] $end
     $var wire 32 h$ DW [31:0] $end
     $var wire 144 j$ FN [143:0] $end
     $var wire 13 -! a [12:0] $end
     $var wire  1 +! ce $end
     $var wire  1 *! clock $end
     $var wire  8 ,! data_out [7:0] $end
    $upscope $end
    $scope module PCGRAM $end
     $var wire 32 i$ addr_width_g [31:0] $end
     $var wire 13 G! address_a [12:0] $end
     $var wire 13 L! address_b [12:0] $end
     $var wire  1 D! clock $end
     $var wire  8 H! data_a [7:0] $end
     $var wire  8 M! data_b [7:0] $end
     $var wire 32 h$ data_width_g [31:0] $end
     $var wire  8 I! q_a [7:0] $end
     $var wire  8 N! q_b [7:0] $end
     $var wire  1 E! ram_cs $end
     $var wire  1 J! ram_cs_b $end
     $var wire  1 F! wren_a $end
     $var wire  1 K! wren_b $end
    $upscope $end
    $scope module RAM $end
     $var wire 32 o$ addr_width_g [31:0] $end
     $var wire 16 1! address_a [15:0] $end
     $var wire 16 6! address_b [15:0] $end
     $var wire  1 .! clock $end
     $var wire  8 2! data_a [7:0] $end
     $var wire  8 7! data_b [7:0] $end
     $var wire 32 h$ data_width_g [31:0] $end
     $var wire  8 3! q_a [7:0] $end
     $var wire  8 8! q_b [7:0] $end
     $var wire  1 /! ram_cs $end
     $var wire  1 4! ram_cs_b $end
     $var wire  1 0! wren_a $end
     $var wire  1 5! wren_b $end
    $upscope $end
    $scope module VRAM $end
     $var wire 32 p$ addr_width_g [31:0] $end
     $var wire 12 <! address_a [11:0] $end
     $var wire 12 A! address_b [11:0] $end
     $var wire  1 9! clock $end
     $var wire  8 =! data_a [7:0] $end
     $var wire  8 B! data_b [7:0] $end
     $var wire 32 h$ data_width_g [31:0] $end
     $var wire  8 >! q_a [7:0] $end
     $var wire  8 C! q_b [7:0] $end
     $var wire  1 :! ram_cs $end
     $var wire  1 ?! ram_cs_b $end
     $var wire  1 ;! wren_a $end
     $var wire  1 @! wren_b $end
    $upscope $end
   $upscope $end
   $scope module unnamedblk1 $end
    $var wire  1 W old_clk $end
   $upscope $end
  $upscope $end
 $upscope $end
$enddefinitions $end


#12675000
0#
0$
b000000000000 %
b00000000 &
b00000000 '
b00000000 (
0)
0*
0+
0,
b0000000000000000 -
b0000000000000000 .
0/
00
01
b0000000000011000011111100 2
b00001010 3
b00000000 4
b00000000 5
06
07
08
b000000000000 9
b00000000 :
b00000000 ;
b00000000 <
0=
0>
0?
0@
b0000000000000000 A
b0000000000000000 B
0C
0D
0E
b0000000000011000011111100 F
b00001010 G
b00000000 H
b00000000 I
0J
0K
b00000000 L
b000000000 M
b0000 N
b00000000 O
b11111111 P
b1111011111 Q
b00000000 R
b00000010 S
0T
0U
0V
1W
0X
0Y
0Z
0[
0\
0]
b00000000 ^
0_
b0000000000011000011111100 `
b00000000 a
0b
0c
0d
0e
0f
b00000000 g
b11000011 h
b00000000000000 i
b00000000 j
b00000000 k
b0000000000000000 l
1m
b00000000 n
b00000000 o
b0000000000000000 p
0q
b00000000 r
b00000000 s
b0000000000000000 t
0u
b00000000 v
b00000000 w
b0000000000000000 x
0y
b0001 z
0{
b110000 |
b0000 }
0~
0!!
b00000000 "!
b00000000 #!
b0000000000000000 $!
1%!
1&!
1'!
b0000000000000000 (!
0)!
0*!
1+!
b11000011 ,!
b0000000000000 -!
0.!
0/!
10!
b0000000000000000 1!
b00000000 2!
b00000000 3!
04!
05!
b0000000000000000 6!
b00000000 7!
b00000000 8!
09!
0:!
0;!
b000000000000 <!
b00000000 =!
b00000000 >!
0?!
0@!
b000000000000 A!
b00000000 B!
b00000000 C!
0D!
0E!
0F!
b0000000000000 G!
b00000000 H!
b00000000 I!
0J!
0K!
b0000000000000 L!
b00000000 M!
b00000000 N!
0O!
0P!
0Q!
b0000000000000000 R!
b00000000 S!
b00000000 T!
0U!
0V!
b0000000000000000 W!
b00000000 X!
b00000000 Y!
1Z!
0[!
0\!
0]!
1^!
1_!
1`!
1a!
1b!
b00000000 c!
b00000000 d!
b0000000000000000 e!
b0000000000000000 f!
0g!
0h!
0i!
0j!
0k!
1l!
1m!
1n!
1o!
1p!
1q!
1r!
1s!
1t!
1u!
1v!
1w!
b0000000000000000 x!
b00000000 y!
b00000000 z!
b0000000000000000 {!
0|!
1}!
0~!
0!"
0""
b00000000 #"
b0000001 $"
b0000001 %"
0&"
0'"
0("
1)"
1*"
1+"
1,"
1-"
0."
0/"
00"
11"
12"
13"
b0000000000000000 4"
b00000000 5"
b00000000 6"
b00000000 7"
b0000001 8"
b0000001 9"
1:"
0;"
0<"
b0000000000000000 ="
0>"
b11111111 ?"
b11111111 @"
b11111111 A"
b11111111 B"
b00000000 C"
b1111111111111111 D"
b0000000000000000 E"
b00000000 F"
b00000000 G"
b0000000000000000 H"
b0000000000000000 I"
b0000000000000000 J"
b000 K"
b000 L"
b000 M"
b000 N"
b011 O"
0P"
0Q"
0R"
b0000000000000000 S"
b00000000 T"
b00 U"
b0000000000000000 V"
b0000000000000001 W"
b00000000 X"
b0000001 Y"
b0000001 Z"
0["
0\"
0]"
0^"
0_"
0`"
0a"
0b"
0c"
0d"
b00 e"
b00000000 f"
0g"
b00 h"
b000 i"
0j"
0k"
0l"
0m"
0n"
0o"
0p"
0q"
b00000000 r"
b00000000 s"
b00000000 t"
b01000000 u"
b00000 v"
0w"
0x"
b0000 y"
0z"
0{"
b000 |"
b001 }"
b100 ~"
0!#
0"#
0##
0$#
b0000 %#
b00 &#
0'#
0(#
b0000 )#
b0000 *#
b0000 +#
0,#
0-#
0.#
b111 /#
00#
01#
02#
03#
04#
05#
06#
07#
08#
b000 9#
0:#
0;#
0<#
0=#
0>#
0?#
0@#
0A#
0B#
0C#
0D#
0E#
0F#
0G#
0H#
0I#
0J#
b11 K#
0L#
b0000000000000001 M#
b0000000000000001 N#
b0000000000000000 O#
b1111111111111111 P#
b0000000000000001 Q#
b0000000000000001 R#
0S#
b00000000 T#
b00 U#
b0000001 V#
b11111111 W#
0X#
0Y#
b001 Z#
b100 [#
b00 \#
0]#
0^#
b0000 _#
0`#
0a#
b0000 b#
b0000 c#
b0000 d#
0e#
0f#
0g#
b111 h#
0i#
0j#
0k#
0l#
0m#
0n#
0o#
0p#
0q#
b000 r#
0s#
0t#
0u#
0v#
0w#
0x#
0y#
0z#
0{#
0|#
0}#
0~#
0!$
0"$
0#$
0$$
0%$
b11 &$
0'$
0($
0)$
b000 *$
b000 +$
b00 ,$
0-$
0.$
b0000 /$
b000000 0$
b00 1$
b00000000 2$
b00000000 3$
b11111111 4$
b00000000 5$
b01000000 6$
07$
08$
09$
0:$
0;$
b00000000 <$
b00000001 =$
b00000000 >$
b000000000 ?$
b011 @$
b00000000 A$
b000 B$
b000 C$
b00000000 D$
b00000000 E$
b00000000 F$
b00000000 G$
b00000000 H$
b00000000 I$
b00000000 J$
0K$
0L$
0M$
0N$
0O$
b00000000 P$
b00000000 Q$
b00000000 R$
b00000000 S$
b00000000 T$
b00000000 U$
b00000000 V$
b00000000 W$
b00000000 X$
b00000000 Y$
b00000000 Z$
b00000000 [$
b00000000 \$
b00000000 ]$
b00000000 ^$
b00000000 _$
b00000000 `$
b00000000 a$
b00000000 b$
b00000000 c$
b00000000 d$
b00000000 e$
b0000000000000000 f$
b0000000000000000 g$
b00000000000000000000000000001000 h$
b00000000000000000000000000001101 i$
b001011100010111000101111011000100110100101101111011100110010111101101001011100000110110001011111011110000011000100101110011010000110010101111000 j$
b00000000000000000000000000010000 o$
b00000000000000000000000000001100 p$
b00000000000000000000000000000000 q$
b00000000000000000000000000000001 r$
b00000000000000000000000000000010 s$
b00000000000000000000000000000011 t$
b00000000000000000000000000000100 u$
b00000000000000000000000000000101 v$
b00000000000000000000000000000110 w$
b00000000000000000000000000000111 x$
b111 y$
b000 z$
b001 {$
b010 |$
b100 }$
b101 ~$
b110 !%
#12675001
1T
0W
#12675002
1$
18
0T
1X
1*!
1.!
19!
1D!
1O!
#12675003
0$
08
0X
b0010 z
b110001 |
b0001 }
1!!
0*!
0.!
09!
0D!
0O!
1]!
#12675004
#12675005
1W
b0011 z
b110010 |
b0010 }
1~
0!!
1\!
0]!
1k!
1("
1b"
1L$
#12675006
1T
0W
#12675007
1$
18
0T
1X
1*!
1.!
19!
1D!
1O!
#12675008
0$
08
0X
b0100 z
1{
b110011 |
b0000 }
0~
0*!
0.!
09!
0D!
0O!
1[!
0\!
1j!
0k!
1'"
0("
0b"
1K$
0L$
#12675009
#12675010
1W
b0101 z
b110100 |
b0001 }
1!!
1]!
#12675011
1T
0W
#12675012
1$
18
0T
1X
1*!
1.!
19!
1D!
1O!
#12675013
0$
08
0X
b0110 z
b110101 |
b0010 }
1~
0!!
0*!
0.!
09!
0D!
0O!
1\!
0]!
1k!
1("
1b"
1L$
#12675014
#12675015
1W
b0111 z
b110110 |
b0000 }
0~
0\!
0k!
0("
0b"
0L$
#12675016
1T
0W
#12675017
1$
18
0T
1X
1*!
1.!
19!
1D!
1O!
#12675018
0$
08
0X
b1000 z
0{
b110111 |
b0001 }
1!!
0*!
0.!
09!
0D!
0O!
0[!
1]!
0j!
0'"
0K$
#12675019
#12675020
1W
b1001 z
b111000 |
b0010 }
1~
0!!
1\!
0]!
1k!
1("
1b"
1L$
#12675021
1T
0W
#12675022
1$
18
0T
1X
1*!
1.!
19!
1D!
1O!
#12675023
0$
08
0X
b1010 z
b111001 |
b0000 }
0~
0*!
0.!
09!
0D!
0O!
0\!
0k!
0("
0b"
0L$
#12675024
#12675025
1W
b1011 z
b111010 |
b0001 }
1!!
1]!
#12675026
1T
0W
#12675027
1$
18
0T
1X
1*!
1.!
19!
1D!
1O!
#12675028
0$
08
0X
b1100 z
1{
b111011 |
b0010 }
1~
0!!
0*!
0.!
09!
0D!
0O!
1[!
1\!
0]!
1j!
1k!
1'"
1("
1b"
1K$
1L$
#12675029
#12675030
1W
b1101 z
b111100 |
b0000 }
0~
0\!
0k!
0("
0b"
0L$
#12675031
1T
0W
#12675032
1$
18
0T
1X
1*!
1.!
19!
1D!
1O!
#12675033
0$
08
0X
b1110 z
b111101 |
b0001 }
1!!
0*!
0.!
09!
0D!
0O!
1]!
#12675034
#12675035
1W
b1111 z
b111110 |
b0010 }
1~
0!!
1\!
0]!
1k!
1("
1b"
1L$
#12675036
1T
0W
#12675037
1$
18
0T
1X
1*!
1.!
19!
1D!
1O!
#12675038
0$
08
0X
b0000 z
0{
b111111 |
b0000 }
0~
0*!
0.!
09!
0D!
0O!
0[!
0\!
0j!
0k!
0'"
0("
0b"
0K$
0L$
#12675039
#12675040
1W
b0001 z
b000000 |
b0001 }
1!!
1]!
#12675041
1T
0W
#12675042
1$
18
0T
1X
1*!
1.!
19!
1D!
1O!
#12675043
0$
08
0X
b0010 z
b000001 |
b0010 }
1~
0!!
0*!
0.!
09!
0D!
0O!
1\!
0]!
1k!
1("
1b"
1L$
#12675044
